# Wavefront Obj file
# 
# verts: 300 uv-s: 594
mtllib krisssword.mtl

g Plane001
#pivot 6.880162 0.657640 -0.087515

v -7.801361 0.657640 -2.381297
v 5.552828 0.657640 -3.226680
v 16.919666 0.657640 -11.386036
v 22.762602 0.657640 -0.267293
v 22.762602 0.657640 -11.386036
v 30.140373 0.657640 -5.012355
v 35.253559 0.657640 6.106386
v 35.253559 0.657640 -5.012355
v 40.890820 0.657640 -11.472246
v 45.820080 0.657640 -0.353504
v 45.820080 0.657640 -11.472246
v 51.977379 0.657640 -4.438587
v 59.009892 0.657640 6.680153
v 59.009892 0.657640 -4.438587
v 64.614700 0.657640 -11.579964
v 69.878281 0.657640 -0.461222
v 69.878281 0.657640 -11.579964
v 74.258194 0.657640 -4.659554
v 79.338676 0.657640 6.459187
v 79.338676 0.657640 -4.659554
v 84.591354 0.657640 -11.573721
v 90.895874 0.657640 -0.454978
v 90.895874 0.657640 -11.573721
v 96.256287 0.657640 -8.770087
v 19.749523 0.657640 -12.737896
v 43.503582 0.657640 -13.277662
v 32.594311 0.657640 -3.198814
v 56.348366 0.657640 -1.718594
v 67.081680 0.657640 -13.498627
v 77.111176 0.657640 -3.073438
v 87.844490 0.657640 -12.811850
v -7.801361 0.657640 4.776999
v 5.552828 0.657640 4.776999
v 16.919666 0.657640 -0.267293
v 30.140373 0.657640 6.106386
v 40.890820 0.657640 -0.353504
v 51.977379 0.657640 6.680153
v 64.614700 0.657640 -0.461223
v 74.258194 0.657640 6.459187
v 84.591354 0.657640 -0.454978
v 101.655655 0.657640 3.280694
v 19.749523 0.657640 -1.619154
v 43.503582 0.657640 -2.158921
v 32.594311 0.657640 7.919927
v 56.348366 0.657640 9.400146
v 67.081680 0.657640 -2.379887
v 77.111176 0.657640 8.045303
v 87.844490 0.657640 -1.693108
v 5.552826 -0.662086 -5.511815
v 16.919662 -0.662086 2.017843
v 16.919662 -0.662086 -13.671169
v 22.762600 -0.662086 -13.671169
v 45.820080 -0.662086 -13.757380
v 51.977379 -0.662086 -6.723723
v 59.009892 -0.662086 8.965288
v 59.009892 -0.662086 -6.723723
v 64.614700 -0.662086 -13.865099
v 69.878281 -0.662086 1.823913
v 69.878281 -0.662086 -13.865099
v 74.258194 -0.662086 -6.944689
v 79.338676 -0.662086 8.744322
v 79.338676 -0.662086 -6.944689
v 84.591354 -0.662086 1.830157
v 43.503582 -0.662086 0.126215
v 32.594311 -0.662086 10.205061
v 56.348366 -0.662086 11.685282
v 56.348362 -0.662086 -4.003729
v 67.081680 -0.662086 -0.094751
v 67.081680 -0.662086 -15.783762
v 108.682510 -0.662086 7.477820
v -7.801361 -1.981812 -2.381297
v -7.801361 -1.981813 4.776999
v 5.552828 -1.981813 4.776999
v 5.552828 -1.981812 -3.226680
v 16.919666 -1.981813 -0.267293
v 16.919666 -1.981813 -11.386036
v 19.749523 -1.981813 -1.619154
v 19.749523 -1.981813 -12.737896
v 22.762602 -1.981813 -11.386036
v 22.762602 -1.981813 -0.267293
v 30.140373 -1.981813 6.106386
v 30.140373 -1.981813 -5.012355
v 32.594311 -1.981813 7.919927
v 32.594311 -1.981813 -3.198814
v 35.253559 -1.981813 -5.012355
v 35.253559 -1.981813 6.106386
v 40.890820 -1.981813 -0.353504
v 40.890820 -1.981813 -11.472246
v 43.503582 -1.981813 -2.158921
v 43.503582 -1.981813 -13.277662
v 45.820080 -1.981813 -11.472246
v 45.820080 -1.981813 -0.353504
v 51.977379 -1.981813 6.680153
v 51.977379 -1.981813 -4.438587
v 56.348366 -1.981813 9.400146
v 56.348366 -1.981813 -1.718594
v 59.009892 -1.981813 -4.438587
v 59.009892 -1.981813 6.680153
v 64.614700 -1.981813 -0.461223
v 64.614700 -1.981813 -11.579964
v 67.081680 -1.981813 -2.379887
v 67.081680 -1.981813 -13.498627
v 69.878281 -1.981813 -11.579964
v 69.878281 -1.981813 -0.461222
v 74.258194 -1.981813 6.459187
v 74.258194 -1.981813 -4.659554
v 77.111176 -1.981813 8.045303
v 77.111176 -1.981813 -3.073438
v 79.338676 -1.981813 -4.659554
v 79.338676 -1.981813 6.459187
v 84.591354 -1.981813 -0.454978
v 84.591354 -1.981813 -11.573721
v 87.844490 -1.981813 -1.693108
v 87.844490 -1.981813 -12.811850
v 90.895874 -1.981813 -11.573721
v 90.895874 -1.981813 -0.454978
v 101.655655 -1.981813 3.280694
v 96.256287 -1.981813 -8.770087
v -7.801357 -0.662086 -4.666432
v -7.801361 -0.662086 7.062134
v 5.552826 -0.662086 7.062134
v 19.749523 -0.662086 0.665981
v 19.749521 -0.662086 -15.023031
v 22.762600 -0.662086 2.017843
v 30.140373 -0.662086 8.391520
v 30.140373 -0.662086 -7.297491
v 35.253559 -0.662086 -7.297491
v 32.594311 -0.662086 -5.483950
v 35.253559 -0.662086 8.391520
v 40.890820 -0.662086 1.931632
v 40.890820 -0.662086 -13.757380
v 43.503582 -0.662086 -15.562798
v 45.820080 -0.662086 1.931632
v 51.977379 -0.662086 8.965288
v 64.614700 -0.662086 1.823913
v 74.258194 -0.662086 8.744322
v 77.111176 -0.662086 10.330439
v 77.111176 -0.662086 -5.358572
v 84.591354 -0.662086 -13.858854
v 87.844490 -0.662086 0.592027
v 90.895874 -0.662086 -13.858854
v 87.844490 -0.662086 -15.096985
v 90.895874 -0.662086 1.830157
v 100.273849 -0.662086 -8.222583
# 144 positions

vt 0.855576 0.481262
vt 0.752421 0.482098
vt 0.751921 0.420273
vt 0.855128 0.425967
vt 0.664303 0.443844
vt 0.663607 0.357956
vt 0.642360 0.433579
vt 0.641663 0.347691
vt 0.618473 0.358322
vt 0.619171 0.444210
vt 0.562582 0.493907
vt 0.561884 0.408019
vt 0.543741 0.508070
vt 0.543043 0.422182
vt 0.522388 0.408340
vt 0.523086 0.494228
vt 0.479136 0.444683
vt 0.478436 0.358795
vt 0.458841 0.430901
vt 0.458140 0.345014
vt 0.440360 0.359106
vt 0.441061 0.444994
vt 0.393944 0.499714
vt 0.393242 0.413826
vt 0.360353 0.521001
vt 0.359650 0.435113
vt 0.338920 0.414270
vt 0.339623 0.500158
vt 0.295878 0.445349
vt 0.295172 0.359461
vt 0.276701 0.430685
vt 0.275994 0.344797
vt 0.254513 0.359796
vt 0.255221 0.445684
vt 0.221832 0.499421
vt 0.221121 0.413532
vt 0.199896 0.511855
vt 0.199185 0.425967
vt 0.181876 0.413858
vt 0.182589 0.499746
vt 0.141572 0.446674
vt 0.140856 0.360786
vt 0.116364 0.437319
vt 0.115647 0.351432
vt 0.092156 0.361193
vt 0.092873 0.447080
vt 0.010000 0.476632
vt 0.050930 0.383196
vt 0.884522 0.800538
vt 0.987793 0.804965
vt 0.988034 0.825349
vt 0.884764 0.820921
vt 0.973667 0.978509
vt 0.870552 0.975481
vt 0.871151 0.955105
vt 0.974265 0.958133
vt 0.781636 0.939106
vt 0.782246 0.918733
vt 0.790828 0.767453
vt 0.790584 0.747069
vt 0.759434 0.929386
vt 0.760073 0.909007
vt 0.744254 0.747636
vt 0.767998 0.738298
vt 0.768248 0.758680
vt 0.744511 0.768019
vt 0.735287 0.937652
vt 0.671794 0.978191
vt 0.672494 0.957813
vt 0.735956 0.917280
vt 0.682714 0.791062
vt 0.682984 0.811442
vt 0.651135 0.989589
vt 0.651892 0.969228
vt 0.641087 0.812057
vt 0.640757 0.791677
vt 0.662662 0.803467
vt 0.662960 0.823855
vt 0.630699 0.956260
vt 0.629886 0.976632
vt 0.581482 0.931399
vt 0.582339 0.911037
vt 0.590192 0.769691
vt 0.589839 0.749306
vt 0.560640 0.918412
vt 0.561573 0.898034
vt 0.549267 0.750097
vt 0.568242 0.737627
vt 0.568642 0.757999
vt 0.549714 0.770481
vt 0.540837 0.929540
vt 0.483692 0.973716
vt 0.484755 0.953358
vt 0.541853 0.909187
vt 0.495561 0.798392
vt 0.496037 0.818771
vt 0.447382 0.990000
vt 0.448498 0.969657
vt 0.437607 0.820230
vt 0.437031 0.799857
vt 0.460631 0.817424
vt 0.461140 0.837810
vt 0.426542 0.950161
vt 0.425321 0.970515
vt 0.376971 0.919683
vt 0.378256 0.899349
vt 0.384918 0.773978
vt 0.384298 0.753595
vt 0.357350 0.905541
vt 0.358769 0.885185
vt 0.341006 0.755106
vt 0.363397 0.741441
vt 0.364108 0.761799
vt 0.341794 0.775479
vt 0.333590 0.916665
vt 0.286977 0.959499
vt 0.288598 0.939173
vt 0.335118 0.896344
vt 0.299744 0.803098
vt 0.300597 0.823460
vt 0.263241 0.968183
vt 0.264983 0.947898
vt 0.259550 0.825349
vt 0.258496 0.805001
vt 0.277315 0.814682
vt 0.278256 0.835063
vt 0.247820 0.935676
vt 0.245917 0.955986
vt 0.201957 0.905258
vt 0.203962 0.884976
vt 0.208591 0.781785
vt 0.207460 0.761429
vt 0.177289 0.894456
vt 0.179400 0.874168
vt 0.157863 0.764373
vt 0.181404 0.754625
vt 0.182614 0.774964
vt 0.159157 0.784721
vt 0.152448 0.900113
vt 0.010000 0.922327
vt 0.068083 0.895352
vt 0.154659 0.879855
vt 0.117695 0.806226
vt 0.084764 0.806830
vt 0.798531 0.277807
vt 0.799038 0.215983
vt 0.902192 0.216828
vt 0.901739 0.272123
vt 0.710212 0.340115
vt 0.710916 0.254228
vt 0.688267 0.350378
vt 0.688971 0.264491
vt 0.665079 0.339745
vt 0.608492 0.290046
vt 0.609194 0.204159
vt 0.665782 0.253858
vt 0.589652 0.275883
vt 0.590353 0.189995
vt 0.568996 0.289723
vt 0.525044 0.339268
vt 0.525744 0.253381
vt 0.569697 0.203836
vt 0.504749 0.353050
vt 0.505448 0.267162
vt 0.486969 0.338958
vt 0.439848 0.284240
vt 0.440545 0.198353
vt 0.487667 0.253071
vt 0.406255 0.262956
vt 0.406951 0.177069
vt 0.385526 0.283800
vt 0.341784 0.338614
vt 0.342480 0.252726
vt 0.386221 0.197913
vt 0.322608 0.353280
vt 0.323304 0.267392
vt 0.301126 0.338284
vt 0.267726 0.284553
vt 0.268421 0.198666
vt 0.301821 0.252397
vt 0.245788 0.272123
vt 0.246482 0.186235
vt 0.228483 0.284236
vt 0.187477 0.337318
vt 0.188170 0.251430
vt 0.229176 0.198349
vt 0.162270 0.346679
vt 0.162964 0.260791
vt 0.138777 0.336924
vt 0.097545 0.314933
vt 0.056589 0.221509
vt 0.139471 0.251037
vt 0.990000 0.636264
vt 0.989845 0.656649
vt 0.886593 0.661517
vt 0.886749 0.641133
vt 0.871082 0.512336
vt 0.870659 0.491956
vt 0.973797 0.489822
vt 0.974219 0.510202
vt 0.781869 0.547939
vt 0.781432 0.527562
vt 0.793043 0.695002
vt 0.792888 0.715387
vt 0.759624 0.557482
vt 0.759144 0.537097
vt 0.770500 0.703874
vt 0.770343 0.724258
vt 0.746559 0.715032
vt 0.746717 0.694647
vt 0.672411 0.508041
vt 0.671846 0.487657
vt 0.735057 0.528649
vt 0.735575 0.549025
vt 0.684809 0.671909
vt 0.684977 0.651527
vt 0.651890 0.496495
vt 0.651244 0.476135
vt 0.643075 0.651135
vt 0.664885 0.639218
vt 0.664696 0.659606
vt 0.642860 0.671517
vt 0.630651 0.509369
vt 0.582135 0.554415
vt 0.581344 0.534052
vt 0.629919 0.488992
vt 0.592422 0.693794
vt 0.592191 0.714180
vt 0.561352 0.567366
vt 0.560454 0.546982
vt 0.570940 0.705617
vt 0.570672 0.725994
vt 0.551620 0.713652
vt 0.551920 0.693267
vt 0.484568 0.512023
vt 0.483499 0.491665
vt 0.540653 0.535838
vt 0.541658 0.556189
vt 0.497564 0.665755
vt 0.497887 0.645373
vt 0.448308 0.495744
vt 0.447170 0.475406
vt 0.439447 0.644378
vt 0.462840 0.626603
vt 0.462493 0.646990
vt 0.439050 0.664756
vt 0.426408 0.515285
vt 0.378290 0.566244
vt 0.376931 0.545918
vt 0.425130 0.494932
vt 0.387174 0.691107
vt 0.386746 0.711493
vt 0.358894 0.580501
vt 0.357355 0.560147
vt 0.366477 0.703487
vt 0.365975 0.723854
vt 0.343448 0.710430
vt 0.344009 0.690049
vt 0.288332 0.527052
vt 0.286529 0.506739
vt 0.333505 0.549191
vt 0.335185 0.569498
vt 0.301649 0.662910
vt 0.302265 0.642538
vt 0.264647 0.518548
vt 0.262690 0.498291
vt 0.261190 0.641156
vt 0.279779 0.631204
vt 0.279090 0.651593
vt 0.260404 0.661517
vt 0.247660 0.530981
vt 0.204522 0.582286
vt 0.202229 0.562034
vt 0.245488 0.510694
vt 0.210819 0.685407
vt 0.209972 0.705776
vt 0.180129 0.593450
vt 0.177712 0.573195
vt 0.184936 0.692595
vt 0.184023 0.712952
vt 0.160347 0.703560
vt 0.161325 0.683196
vt 0.068504 0.574021
vt 0.010000 0.547971
vt 0.152784 0.567923
vt 0.155310 0.588143
vt 0.119524 0.662349
vt 0.086587 0.662267
# 288 texture coordinates

vn 0.000000 1.000000 0.000000
vn 0.000000 1.000000 0.000000
vn 0.000000 1.000000 0.000000
vn 0.000000 1.000000 0.000000
vn 0.000000 1.000000 0.000000
vn 0.000000 1.000000 0.000000
vn 0.000000 1.000000 0.000000
vn 0.000000 1.000000 0.000000
vn 0.000000 1.000000 0.000000
vn 0.000000 1.000000 0.000000
vn 0.000000 1.000000 0.000000
vn 0.000000 1.000000 0.000000
vn 0.000000 1.000000 0.000000
vn 0.000000 1.000000 0.000000
vn 0.000000 1.000000 0.000000
vn 0.000000 1.000000 0.000000
vn 0.000000 1.000000 0.000000
vn 0.000000 1.000000 0.000000
vn 0.000000 1.000000 0.000000
vn 0.000000 1.000000 0.000000
vn 0.000000 1.000000 0.000000
vn 0.000000 1.000000 0.000000
vn 0.000000 1.000000 0.000000
vn 0.000000 1.000000 0.000000
vn 0.000000 1.000000 0.000000
vn 0.000000 1.000000 0.000000
vn 0.000000 1.000000 0.000000
vn 0.000000 1.000000 0.000000
vn 0.000000 1.000000 0.000000
vn 0.000000 1.000000 0.000000
vn 0.000000 1.000000 0.000000
vn 0.000000 1.000000 0.000000
vn 0.000000 1.000000 0.000000
vn 0.000000 1.000000 0.000000
vn 0.000000 1.000000 0.000000
vn 0.000000 1.000000 0.000000
vn 0.000000 1.000000 0.000000
vn 0.000000 1.000000 0.000000
vn 0.000000 1.000000 0.000000
vn 0.000000 1.000000 0.000000
vn 0.000000 1.000000 0.000000
vn 0.000000 1.000000 0.000000
vn 0.000000 1.000000 0.000000
vn 0.000000 1.000000 0.000000
vn 0.000000 1.000000 0.000000
vn 0.000000 1.000000 0.000000
vn 0.000000 1.000000 0.000000
vn 0.000000 1.000000 0.000000
vn -0.355814 -0.000000 -0.934557
vn -0.063178 0.000000 -0.998002
vn -0.031644 0.865526 -0.499864
vn -0.187048 0.850676 -0.491288
vn 0.000000 0.000000 1.000000
vn 0.214134 0.000000 0.976804
vn 0.108982 0.860801 0.497136
vn 0.000000 0.865959 0.500114
vn 0.418439 0.000000 0.908245
vn 0.224526 0.843850 0.487346
vn -0.285559 0.829902 -0.479290
vn -0.511837 0.000000 -0.859083
vn 0.431053 0.000000 0.902326
vn 0.232372 0.842255 0.486425
vn 0.544960 -0.000000 -0.838462
vn 0.409351 0.000000 -0.912377
vn 0.218940 0.844950 -0.487981
vn 0.309130 0.823544 -0.475619
vn -0.544960 0.000000 0.838462
vn -0.625073 0.000000 0.780566
vn -0.371782 0.803887 0.464266
vn -0.309129 0.823545 0.475619
vn 0.625073 -0.000000 -0.780566
vn 0.371782 0.803887 -0.464266
vn -0.594341 0.000000 0.804213
vn -0.346680 0.812255 0.469099
vn -0.411908 0.789084 -0.455717
vn -0.670549 0.000000 -0.741865
vn -0.563425 0.000000 -0.826167
vn -0.322807 0.819600 -0.473341
vn 0.411908 0.789084 0.455717
vn 0.670549 0.000000 0.741865
vn 0.672528 0.000000 0.740071
vn 0.413747 0.788362 0.455300
vn -0.413747 0.788362 -0.455300
vn -0.672528 -0.000000 -0.740071
vn 0.568482 0.000000 0.822696
vn 0.326625 0.818465 0.472685
vn 0.690442 0.000000 -0.723388
vn 0.614725 0.000000 -0.788742
vn 0.363164 0.806836 -0.465969
vn 0.430777 0.781492 -0.451333
vn -0.690442 0.000000 0.723388
vn -0.656350 0.000000 0.754457
vn -0.398957 0.794059 0.458590
vn -0.430777 0.781492 0.451333
vn 0.656350 0.000000 -0.754457
vn 0.398957 0.794058 -0.458590
vn -0.528340 0.000000 0.849033
vn -0.297155 0.826843 0.477524
vn -0.496805 0.751533 -0.434030
vn -0.753083 0.000000 -0.657925
vn -0.714747 0.000000 -0.699383
vn -0.455103 0.771084 -0.445321
vn 0.496806 0.751533 0.434030
vn 0.753083 0.000000 0.657925
vn 0.711849 0.000000 0.702332
vn 0.452124 0.772397 0.446080
vn -0.452124 0.772397 -0.446080
vn -0.711849 0.000000 -0.702332
vn 0.613921 0.000000 0.789367
vn 0.362502 0.807059 0.466098
vn 0.737305 0.000000 -0.675561
vn 0.565728 0.000000 -0.824592
vn 0.324541 0.819086 -0.473044
vn 0.479102 0.760104 -0.438980
vn -0.737305 0.000000 0.675560
vn -0.712560 0.000000 0.701611
vn -0.452853 0.772077 0.445895
vn -0.479102 0.760104 0.438980
vn 0.712560 0.000000 -0.701612
vn 0.452853 0.772077 -0.445895
vn -0.485907 0.000000 0.874011
vn -0.267877 0.834311 0.481837
vn -0.445875 0.775116 -0.447650
vn -0.705700 -0.000000 -0.708511
vn -0.580038 0.000000 -0.814590
vn -0.335475 0.815776 -0.471132
vn 0.445875 0.775116 0.447650
vn 0.705700 -0.000000 0.708511
vn 0.796278 0.000000 0.604931
vn 0.549857 0.723300 0.417725
vn -0.549857 0.723300 -0.417725
vn -0.796278 0.000000 -0.604931
vn 0.186984 0.850686 0.491294
vn 0.355704 0.000000 0.934599
vn 0.355704 0.000000 0.934599
vn 0.186984 0.850686 0.491294
vn 0.441345 0.000000 -0.897337
vn 0.375987 0.000000 -0.926625
vn 0.198873 0.848662 -0.490125
vn 0.249344 0.825115 -0.506964
vn -0.343581 0.000000 0.939123
vn -0.312267 0.000000 0.949994
vn -0.173073 0.832352 0.526532
vn -0.186026 0.840744 0.508472
vn 0.299666 0.891497 -0.339756
vn 0.661474 0.000000 -0.749968
vn -0.232372 0.842256 -0.486425
vn -0.431053 0.000000 -0.902326
vn -0.409351 0.000000 0.912377
vn -0.218940 0.844950 0.487981
vn -0.326625 0.818465 -0.472685
vn -0.568482 -0.000000 -0.822696
vn -0.614725 0.000000 0.788742
vn -0.363164 0.806836 0.465969
vn 0.322807 0.819600 0.473341
vn 0.563425 0.000000 0.826167
vn 0.594340 0.000000 -0.804214
vn 0.346680 0.812256 -0.469099
vn 0.455104 0.771083 0.445321
vn 0.714747 0.000000 0.699383
vn 0.528340 0.000000 -0.849033
vn 0.297155 0.826843 -0.477524
vn -0.565728 0.000000 0.824592
vn -0.324541 0.819086 0.473044
vn -0.362502 0.807059 -0.466098
vn -0.613921 0.000000 -0.789368
vn 0.335475 0.815776 0.471132
vn 0.580038 0.000000 0.814590
vn 0.485907 0.000000 -0.874011
vn 0.267877 0.834311 -0.481837
vn -0.375987 0.000000 0.926625
vn -0.198873 0.848662 0.490125
vn -0.186984 0.850686 -0.491294
vn -0.355704 0.000000 -0.934599
vn -0.355704 0.000000 -0.934599
vn -0.186984 0.850686 -0.491294
vn 0.287821 0.946916 -0.143210
vn 0.895297 0.000000 -0.445469
vn -0.000000 -1.000000 -0.000000
vn -0.000000 -1.000000 -0.000000
vn -0.000000 -1.000000 -0.000000
vn -0.000000 -1.000000 -0.000000
vn -0.000000 -1.000000 -0.000000
vn -0.000000 -1.000000 -0.000000
vn 0.000000 -1.000000 0.000000
vn 0.000000 -1.000000 0.000000
vn 0.000000 -1.000000 0.000000
vn 0.000000 -1.000000 0.000000
vn 0.000000 -1.000000 0.000000
vn 0.000000 -1.000000 0.000000
vn 0.000000 -1.000000 0.000000
vn 0.000000 -1.000000 0.000000
vn 0.000000 -1.000000 0.000000
vn 0.000000 -1.000000 0.000000
vn 0.000000 -1.000000 0.000000
vn 0.000000 -1.000000 0.000000
vn 0.000000 -1.000000 0.000000
vn 0.000000 -1.000000 0.000000
vn 0.000000 -1.000000 0.000000
vn 0.000000 -1.000000 0.000000
vn 0.000000 -1.000000 0.000000
vn 0.000000 -1.000000 0.000000
vn 0.000000 -1.000000 0.000000
vn 0.000000 -1.000000 0.000000
vn 0.000000 -1.000000 0.000000
vn 0.000000 -1.000000 0.000000
vn 0.000000 -1.000000 0.000000
vn 0.000000 -1.000000 0.000000
vn 0.000000 -1.000000 0.000000
vn 0.000000 -1.000000 0.000000
vn 0.000000 -1.000000 0.000000
vn 0.000000 -1.000000 0.000000
vn 0.000000 -1.000000 0.000000
vn 0.000000 -1.000000 0.000000
vn 0.000000 -1.000000 0.000000
vn 0.000000 -1.000000 0.000000
vn 0.000000 -1.000000 0.000000
vn 0.000000 -1.000000 0.000000
vn 0.000000 -1.000000 0.000000
vn 0.000000 -1.000000 0.000000
vn 0.000000 -1.000000 0.000000
vn 0.000000 -1.000000 0.000000
vn 0.000000 -1.000000 0.000000
vn 0.000000 -1.000000 0.000000
vn 0.000000 -1.000000 0.000000
vn 0.000000 -1.000000 0.000000
vn -0.031644 -0.865526 -0.499864
vn -0.187048 -0.850676 -0.491288
vn 0.108982 -0.860801 0.497136
vn 0.000000 -0.865959 0.500114
vn 0.224526 -0.843850 0.487346
vn -0.285559 -0.829902 -0.479290
vn 0.232372 -0.842255 0.486425
vn 0.218940 -0.844950 -0.487981
vn 0.309130 -0.823544 -0.475619
vn -0.371782 -0.803887 0.464266
vn -0.309129 -0.823545 0.475619
vn 0.371782 -0.803887 -0.464266
vn -0.346680 -0.812255 0.469099
vn -0.411908 -0.789084 -0.455717
vn -0.322807 -0.819600 -0.473341
vn 0.411908 -0.789084 0.455717
vn 0.413747 -0.788362 0.455300
vn -0.413747 -0.788362 -0.455300
vn 0.326625 -0.818465 0.472685
vn 0.363164 -0.806836 -0.465969
vn 0.430777 -0.781492 -0.451333
vn -0.398957 -0.794059 0.458590
vn -0.430777 -0.781492 0.451333
vn 0.398957 -0.794058 -0.458590
vn -0.297155 -0.826843 0.477524
vn -0.496805 -0.751533 -0.434030
vn -0.455103 -0.771084 -0.445321
vn 0.496806 -0.751533 0.434030
vn 0.452124 -0.772397 0.446080
vn -0.452124 -0.772397 -0.446080
vn 0.362502 -0.807059 0.466098
vn 0.324541 -0.819086 -0.473044
vn 0.479102 -0.760104 -0.438980
vn -0.452853 -0.772077 0.445895
vn -0.479102 -0.760104 0.438980
vn 0.452853 -0.772077 -0.445895
vn -0.267877 -0.834311 0.481837
vn -0.445875 -0.775116 -0.447650
vn -0.335475 -0.815776 -0.471132
vn 0.445875 -0.775116 0.447650
vn 0.549857 -0.723300 0.417725
vn -0.549857 -0.723300 -0.417725
vn 0.186984 -0.850686 0.491294
vn 0.186984 -0.850686 0.491294
vn 0.198873 -0.848662 -0.490125
vn 0.249344 -0.825115 -0.506964
vn -0.173073 -0.832352 0.526532
vn -0.186026 -0.840744 0.508472
vn 0.299666 -0.891497 -0.339756
vn -0.232372 -0.842256 -0.486425
vn -0.218940 -0.844950 0.487981
vn -0.326625 -0.818465 -0.472685
vn -0.363164 -0.806836 0.465969
vn 0.322807 -0.819600 0.473341
vn 0.346680 -0.812256 -0.469099
vn 0.455104 -0.771083 0.445321
vn 0.297155 -0.826843 -0.477524
vn -0.324541 -0.819086 0.473044
vn -0.362502 -0.807059 -0.466098
vn 0.335475 -0.815776 0.471132
vn 0.267877 -0.834311 -0.481837
vn -0.198873 -0.848662 0.490125
vn -0.186984 -0.850686 -0.491294
vn -0.186984 -0.850686 -0.491294
vn 0.287821 -0.946916 -0.143210
# 291 normals

usemtl 
s 1
f 32/1/1 33/2/2 2/3/3 1/4/4
f 2/3/3 33/2/2 34/5/5 3/6/6
f 34/5/5 42/7/7 25/8/8 3/6/6
f 5/9/9 4/10/10 35/11/11 6/12/12
f 35/11/11 44/13/13 27/14/14 6/12/12
f 8/15/15 7/16/16 36/17/17 9/18/18
f 36/17/17 43/19/19 26/20/20 9/18/18
f 11/21/21 10/22/22 37/23/23 12/24/24
f 37/23/23 45/25/25 28/26/26 12/24/24
f 14/27/27 13/28/28 38/29/29 15/30/30
f 38/29/29 46/31/31 29/32/32 15/30/30
f 17/33/33 16/34/34 39/35/35 18/36/36
f 39/35/35 47/37/37 30/38/38 18/36/36
f 20/39/39 19/40/40 40/41/41 21/42/42
f 40/41/41 48/43/43 31/44/44 21/42/42
f 23/45/45 22/46/46 41/47/47 24/48/48
f 4/10/10 5/9/9 25/8/8 42/7/7
f 10/22/22 11/21/21 26/20/20 43/19/19
f 7/16/16 8/15/15 27/14/14 44/13/13
f 13/28/28 14/27/27 28/26/26 45/25/25
f 16/34/34 17/33/33 29/32/32 46/31/31
f 19/40/40 20/39/39 30/38/38 47/37/37
f 22/46/46 23/45/45 31/44/44 48/43/43
s 2
f 49/49/49 119/50/50 1/51/51 2/52/52
f 3/59/59 51/60/60 49/49/49 2/52/52
f 25/65/147 123/64/148 51/60/60 3/59/59
f 71/193/227 119/194/50 49/195/49 74/196/228
f 76/203/232 74/196/228 49/195/49 51/204/60
f 78/207/276 76/203/232 51/204/60 123/208/148
s 3
f 120/53/53 121/54/54 33/55/55 32/56/56
f 33/55/55 121/54/54 50/57/57 34/58/58
f 34/58/58 50/57/57 122/61/61 42/62/62
f 73/197/229 121/198/54 120/199/53 72/200/230
f 73/197/229 75/201/231 50/202/57 121/198/54
f 75/201/231 77/205/233 122/206/61 50/202/57
s 4
f 52/63/63 123/64/64 25/65/65 5/66/66
f 126/71/71 52/63/63 5/66/66 6/72/72
f 128/77/157 126/71/71 6/72/72 27/78/158
f 78/207/234 123/208/64 52/209/63 79/210/235
f 79/210/235 52/209/63 126/215/71 82/216/238
f 82/216/238 126/215/71 128/221/157 84/220/281
s 5
f 124/67/67 125/68/68 35/69/69 4/70/70
f 125/68/68 65/73/73 44/74/74 35/69/69
f 122/61/149 124/67/67 4/70/70 42/62/150
f 81/211/236 125/212/68 124/213/67 80/214/237
f 83/217/239 65/218/73 125/212/68 81/211/236
f 80/214/237 124/213/67 122/206/149 77/205/277
s 6
f 8/75/75 127/76/76 128/77/77 27/78/78
f 9/83/83 131/84/84 127/76/76 8/75/75
f 26/89/151 132/88/152 131/84/84 9/83/83
f 85/219/240 84/220/241 128/221/77 127/222/76
f 88/227/244 85/219/240 127/222/76 131/228/84
f 90/231/278 88/227/244 131/228/84 132/232/152
s 7
f 7/79/79 129/80/80 130/81/81 36/82/82
f 36/82/82 130/81/81 64/85/85 43/86/86
f 44/74/155 65/73/156 129/80/80 7/79/79
f 86/223/242 87/224/243 130/225/81 129/226/80
f 87/224/243 89/229/245 64/230/85 130/225/81
f 83/217/280 86/223/242 129/226/80 65/218/156
s 8
f 53/87/87 132/88/88 26/89/89 11/90/90
f 54/95/95 53/87/87 11/90/90 12/96/96
f 67/101/161 54/95/95 12/96/96 28/102/162
f 90/231/246 132/232/88 53/233/87 91/234/247
f 91/234/247 53/233/87 54/239/95 94/240/250
f 94/240/250 54/239/95 67/245/161 96/244/283
s 9
f 133/91/91 134/92/92 37/93/93 10/94/94
f 134/92/92 66/97/97 45/98/98 37/93/93
f 64/85/153 133/91/91 10/94/94 43/86/154
f 93/235/248 134/236/92 133/237/91 92/238/249
f 95/241/251 66/242/97 134/236/92 93/235/248
f 92/238/249 133/237/91 64/230/153 89/229/279
s 10
f 14/99/99 56/100/100 67/101/101 28/102/102
f 15/107/107 57/108/108 56/100/100 14/99/99
f 29/113/165 69/112/166 57/108/108 15/107/107
f 97/243/252 96/244/253 67/245/101 56/246/100
f 100/251/256 97/243/252 56/246/100 57/252/108
f 102/255/285 100/251/256 57/252/108 69/256/166
s 11
f 13/103/103 55/104/104 135/105/105 38/106/106
f 38/106/106 135/105/105 68/109/109 46/110/110
f 45/98/159 66/97/160 55/104/104 13/103/103
f 98/247/254 99/248/255 135/249/105 55/250/104
f 99/248/255 101/253/257 68/254/109 135/249/105
f 95/241/282 98/247/254 55/250/104 66/242/160
s 12
f 59/111/111 69/112/112 29/113/113 17/114/114
f 60/119/119 59/111/111 17/114/114 18/120/120
f 138/125/169 60/119/119 18/120/120 30/126/170
f 102/255/258 69/256/112 59/257/111 103/258/259
f 103/258/259 59/257/111 60/263/119 106/264/262
f 106/264/262 60/263/119 138/269/169 108/268/287
s 13
f 58/115/115 136/116/116 39/117/117 16/118/118
f 136/116/116 137/121/121 47/122/122 39/117/117
f 68/109/163 58/115/115 16/118/118 46/110/164
f 105/259/260 136/260/116 58/261/115 104/262/261
f 107/265/263 137/266/121 136/260/116 105/259/260
f 104/262/261 58/261/115 68/254/163 101/253/284
s 14
f 20/123/123 62/124/124 138/125/125 30/126/126
f 21/131/131 139/132/132 62/124/124 20/123/123
f 109/267/264 108/268/265 138/269/125 62/270/124
f 112/275/268 109/267/264 62/270/124 139/276/132
s 15
f 19/127/127 61/128/128 63/129/129 40/130/130
f 47/122/167 137/121/168 61/128/128 19/127/127
f 110/271/266 111/272/267 63/273/129 61/274/128
f 107/265/286 110/271/266 61/274/128 137/266/168
s 16
f 40/130/133 63/129/134 140/133/135 48/134/136
f 111/272/269 113/277/270 140/278/135 63/273/134
s 17
f 141/135/137 142/136/138 31/137/139 23/138/140
f 24/143/145 144/144/146 141/135/137 23/138/140
f 41/141/177 70/140/178 144/144/146 24/143/145
f 114/279/271 142/280/138 141/281/137 115/282/272
f 118/287/275 115/282/272 141/281/137 144/288/146
f 117/283/291 118/287/275 144/288/146 70/284/178
s 18
f 143/139/141 70/140/142 41/141/143 22/142/144
f 140/133/171 143/139/141 22/142/144 48/134/172
f 117/283/273 70/284/142 143/285/141 116/286/274
f 116/286/274 143/285/141 140/278/171 113/277/288
s 19
f 31/137/173 142/136/174 139/132/175 21/131/176
f 114/279/289 112/275/290 139/276/175 142/280/174
s 20
f 74/145/179 73/146/180 72/147/181 71/148/182
f 74/145/179 76/149/183 75/150/184 73/146/180
f 78/151/185 77/152/186 75/150/184 76/149/183
f 79/153/187 82/154/188 81/155/189 80/156/190
f 84/157/191 83/158/192 81/155/189 82/154/188
f 85/159/193 88/160/194 87/161/195 86/162/196
f 90/163/197 89/164/198 87/161/195 88/160/194
f 91/165/199 94/166/200 93/167/201 92/168/202
f 96/169/203 95/170/204 93/167/201 94/166/200
f 97/171/205 100/172/206 99/173/207 98/174/208
f 102/175/209 101/176/210 99/173/207 100/172/206
f 103/177/211 106/178/212 105/179/213 104/180/214
f 108/181/215 107/182/216 105/179/213 106/178/212
f 109/183/217 112/184/218 111/185/219 110/186/220
f 114/187/221 113/188/222 111/185/219 112/184/218
f 115/189/223 118/190/224 117/191/225 116/192/226
f 78/151/185 79/153/187 80/156/190 77/152/186
f 90/163/197 91/165/199 92/168/202 89/164/198
f 84/157/191 85/159/193 86/162/196 83/158/192
f 96/169/203 97/171/205 98/174/208 95/170/204
f 102/175/209 103/177/211 104/180/214 101/176/210
f 108/181/215 109/183/217 110/186/220 107/182/216
f 114/187/221 115/189/223 116/192/226 113/188/222

g Cylinder001
#pivot -40.396255 -0.786458 0.448397

v -46.664875 -2.056768 0.448396
v -46.664875 -1.980159 -0.299298
v -46.664875 -1.759572 -0.956810
v -46.664875 -1.421613 -1.444833
v -46.664875 -1.007046 -1.704505
v -46.664875 -0.565873 -1.704504
v -46.664875 -0.151305 -1.444833
v -46.664875 0.186653 -0.956810
v -46.664875 0.407239 -0.299299
v -46.664875 0.483849 0.448396
v -46.664875 0.407239 1.196090
v -46.664875 0.186653 1.853602
v -46.664875 -0.151305 2.341625
v -46.664875 -0.565872 2.601297
v -46.664875 -1.007046 2.601298
v -46.664875 -1.421613 2.341626
v -46.664875 -1.759571 1.853604
v -46.664875 -1.980158 1.196092
v -28.492397 -2.056764 0.448400
v -28.492397 -1.980155 -0.976108
v -28.492405 -1.759568 -2.228799
v -28.492405 -1.421610 -3.158580
v -28.492405 -1.007043 -3.653306
v -28.492405 -0.565869 -3.653305
v -28.492405 -0.151302 -3.158580
v -28.492405 0.186656 -2.228799
v -28.492405 0.407243 -0.976108
v -28.492405 0.483852 0.448399
v -28.492397 0.407243 1.872906
v -28.492397 0.186656 3.125597
v -28.492397 -0.151302 4.055378
v -28.492397 -0.565869 4.550106
v -28.492397 -1.007042 4.550107
v -28.492397 -1.421609 4.055380
v -28.492397 -1.759568 3.125600
v -28.492397 -1.980155 1.872910
v -27.814175 -2.056764 0.448400
v -27.814175 -1.980155 -0.775494
v -27.814175 -1.759569 -1.851769
v -27.814175 -1.421610 -2.650609
v -27.814175 -1.007043 -3.075663
v -27.814175 -0.565869 -3.075663
v -27.814175 -0.151302 -2.650609
v -27.814175 0.186656 -1.851769
v -27.814175 0.407243 -0.775494
v -27.814175 0.483852 0.448400
v -27.814175 0.407243 1.672294
v -27.814175 0.186656 2.748569
v -27.814175 -0.151302 3.547410
v -27.814171 -0.565869 3.972464
v -27.814171 -1.007042 3.972465
v -27.814171 -1.421609 3.547411
v -27.814171 -1.759568 2.748571
v -27.814171 -1.980155 1.672297
v -15.250675 -2.056762 0.448403
v -15.250675 -1.980153 -0.775492
v -15.250675 -1.759567 -1.851766
v -15.250675 -1.421608 -2.650607
v -15.250675 -1.007041 -3.075661
v -15.250675 -0.565867 -3.075661
v -15.250675 -0.151300 -2.650607
v -15.250675 0.186658 -1.851767
v -15.250675 0.407245 -0.775492
v -15.250675 0.483854 0.448402
v -15.250675 0.407245 1.672297
v -15.250675 0.186659 2.748572
v -15.250675 -0.151300 3.547412
v -15.250675 -0.565867 3.972467
v -15.250675 -1.007040 3.972467
v -15.250675 -1.421607 3.547414
v -15.250675 -1.759566 2.748575
v -15.250675 -1.980153 1.672300
v -29.074009 -0.151302 -2.650610
v -29.074009 -0.565870 -3.075664
v -29.074009 -1.007043 -3.075664
v -29.074009 -1.421610 -2.650610
v -29.074009 -1.759568 -1.851770
v -29.074009 -1.980155 -0.775495
v -29.074009 -2.056764 0.448399
v -29.074009 -1.980155 1.672296
v -29.074009 -1.759568 2.748571
v -29.074009 -1.421610 3.547410
v -29.074009 -1.007042 3.972463
v -29.074009 -0.565869 3.972462
v -29.074009 -0.151302 3.547408
v -29.074009 0.186656 2.748568
v -29.074009 0.407243 1.672293
v -29.074009 0.483851 0.448399
v -29.074009 0.407243 -0.775496
v -29.074013 0.186656 -1.851770
v -35.497776 0.483850 0.448398
v -35.497776 0.407242 -0.775497
v -35.497776 0.186655 -1.851771
v -35.497776 -0.151303 -2.650612
v -35.497776 -0.565871 -3.075665
v -35.497776 -1.007044 -3.075666
v -35.497776 -1.421611 -2.650612
v -35.497776 -1.759570 -1.851771
v -35.497776 -1.980157 -0.775497
v -35.497776 -2.056765 0.448398
v -35.497776 -1.980156 1.672295
v -35.497776 -1.759569 2.748569
v -35.497776 -1.421611 3.547409
v -35.497776 -1.007044 3.972462
v -35.497776 -0.565870 3.972462
v -35.497776 -0.151303 3.547407
v -35.497776 0.186655 2.748567
v -35.497776 0.407242 1.672292
# 108 positions

vt 0.265747 0.900212
vt 0.269231 0.903193
vt 0.270900 0.906583
vt 0.270552 0.909973
vt 0.268231 0.912955
vt 0.264214 0.915168
vt 0.258988 0.916345
vt 0.253182 0.916345
vt 0.247497 0.915168
vt 0.242618 0.912955
vt 0.239134 0.909973
vt 0.237464 0.906583
vt 0.237812 0.903193
vt 0.240134 0.900212
vt 0.244150 0.897999
vt 0.249376 0.896821
vt 0.255182 0.896821
vt 0.260868 0.897999
vt 0.881244 0.375205
vt 0.794820 0.377132
vt 0.795003 0.367896
vt 0.881380 0.369093
vt 0.881144 0.380813
vt 0.794633 0.385396
vt 0.881107 0.385582
vt 0.794484 0.391927
vt 0.881170 0.389462
vt 0.794434 0.396451
vt 0.881380 0.392898
vt 0.794565 0.399856
vt 0.497761 0.625863
vt 0.584150 0.634014
vt 0.584110 0.638590
vt 0.497634 0.629643
vt 0.497787 0.621260
vt 0.584134 0.627349
vt 0.497779 0.615869
vt 0.584093 0.618913
vt 0.497761 0.610023
vt 0.584046 0.609485
vt 0.497740 0.604184
vt 0.584001 0.600042
vt 0.497708 0.598806
vt 0.583963 0.591570
vt 0.497634 0.594213
vt 0.583923 0.584871
vt 0.882322 0.344822
vt 0.795750 0.336604
vt 0.796346 0.332113
vt 0.882772 0.341039
vt 0.882073 0.348333
vt 0.795479 0.339880
vt 0.881888 0.352314
vt 0.795366 0.344220
vt 0.881706 0.357212
vt 0.795276 0.350560
vt 0.881534 0.362936
vt 0.795158 0.358700
vt 0.016763 0.845087
vt 0.016807 0.834215
vt 0.021995 0.835712
vt 0.021951 0.845112
vt 0.016864 0.824597
vt 0.022101 0.827263
vt 0.016847 0.817371
vt 0.022358 0.820394
vt 0.016761 0.812924
vt 0.022934 0.815270
vt 0.016537 0.809855
vt 0.023751 0.811456
vt 0.283324 0.881112
vt 0.278441 0.881066
vt 0.275005 0.875575
vt 0.279605 0.875269
vt 0.270916 0.881061
vt 0.268207 0.875677
vt 0.261152 0.881037
vt 0.259660 0.875769
vt 0.250161 0.881028
vt 0.250165 0.875790
vt 0.239171 0.881021
vt 0.240688 0.875781
vt 0.229409 0.881011
vt 0.232178 0.875730
vt 0.221885 0.881047
vt 0.225373 0.875566
vt 0.217000 0.881112
vt 0.220655 0.875080
vt 0.016537 0.880333
vt 0.016590 0.877259
vt 0.022773 0.875172
vt 0.023264 0.878615
vt 0.016578 0.872816
vt 0.022634 0.870092
vt 0.016628 0.865583
vt 0.022151 0.863103
vt 0.016714 0.855960
vt 0.021962 0.854552
vt 0.746110 0.185589
vt 0.746110 0.195062
vt 0.649060 0.195061
vt 0.649060 0.185589
vt 0.746110 0.203548
vt 0.649060 0.203548
vt 0.746110 0.210249
vt 0.649060 0.210249
vt 0.746110 0.214835
vt 0.649060 0.214835
vt 0.746110 0.218244
vt 0.649060 0.218243
vt 0.506952 0.701666
vt 0.506952 0.706253
vt 0.409902 0.706252
vt 0.649060 0.222830
vt 0.506952 0.712954
vt 0.409902 0.712953
vt 0.506952 0.721440
vt 0.409902 0.721439
vt 0.506952 0.730913
vt 0.409902 0.730912
vt 0.506952 0.740386
vt 0.409902 0.740386
vt 0.506952 0.748873
vt 0.409902 0.748872
vt 0.506952 0.755573
vt 0.409902 0.755573
vt 0.506952 0.760160
vt 0.409902 0.760159
vt 0.746111 0.152934
vt 0.746111 0.156342
vt 0.649060 0.156342
vt 0.649060 0.152934
vt 0.746110 0.160929
vt 0.649060 0.160929
vt 0.746110 0.167629
vt 0.649060 0.167629
vt 0.746110 0.176116
vt 0.649060 0.176116
vt 0.310326 0.857735
vt 0.310326 0.848262
vt 0.311507 0.839858
vt 0.313727 0.833536
vt 0.316718 0.830059
vt 0.320119 0.829846
vt 0.323521 0.832923
vt 0.326512 0.838919
vt 0.328732 0.847109
vt 0.329913 0.856509
vt 0.329913 0.865981
vt 0.328732 0.874386
vt 0.326512 0.880708
vt 0.323521 0.884185
vt 0.320119 0.884398
vt 0.316718 0.881321
vt 0.313727 0.875325
vt 0.311507 0.867134
vt 0.012314 0.845076
vt 0.012310 0.835672
vt 0.012118 0.827193
vt 0.011562 0.820300
vt 0.011229 0.815267
vt 0.010478 0.811876
vt 0.279602 0.886426
vt 0.274903 0.885814
vt 0.268124 0.885601
vt 0.259630 0.885533
vt 0.250163 0.885519
vt 0.240683 0.885538
vt 0.232161 0.885639
vt 0.225386 0.885799
vt 0.220797 0.886231
vt 0.010000 0.878428
vt 0.011078 0.874692
vt 0.011797 0.869655
vt 0.012124 0.862866
vt 0.012261 0.854455
vt 0.745150 0.376418
vt 0.745313 0.366920
vt 0.744980 0.384958
vt 0.744847 0.391765
vt 0.744794 0.396434
vt 0.744838 0.399869
vt 0.633769 0.634098
vt 0.633739 0.638690
vt 0.633778 0.627363
vt 0.633739 0.618822
vt 0.633684 0.609305
vt 0.633633 0.599808
vt 0.633590 0.591309
vt 0.633553 0.584602
vt 0.633532 0.580014
vt 0.746252 0.333326
vt 0.745935 0.336795
vt 0.745702 0.341582
vt 0.745556 0.348603
vt 0.745445 0.357345
# 196 texture coordinates

vn -1.000000 0.000000 0.000000
vn -1.000000 0.000000 0.000000
vn -1.000000 0.000000 0.000000
vn -1.000000 0.000000 0.000000
vn -1.000000 0.000000 0.000000
vn -1.000000 0.000000 0.000000
vn -1.000000 0.000000 0.000000
vn -1.000000 0.000000 0.000000
vn -1.000000 0.000000 0.000000
vn -1.000000 0.000000 0.000000
vn -1.000000 0.000000 0.000000
vn -1.000000 0.000000 0.000000
vn -1.000000 0.000000 0.000000
vn -1.000000 0.000000 0.000000
vn -1.000000 0.000000 0.000000
vn -1.000000 0.000000 0.000000
vn -1.000000 0.000000 0.000000
vn -1.000000 0.000000 0.000000
vn -0.005444 -0.986795 -0.161881
vn -0.005408 -0.984564 -0.174942
vn -0.000445 -0.999623 -0.027458
vn -0.001454 -0.999780 0.020905
vn -0.025441 -0.929567 -0.367774
vn -0.017453 -0.932804 -0.359960
vn -0.061553 -0.781746 -0.620551
vn -0.037358 -0.771650 -0.634949
vn -0.105222 -0.437893 -0.892848
vn -0.059038 -0.256334 -0.964784
vn -0.119831 0.182204 -0.975932
vn -0.053528 0.476177 -0.877719
vn -0.081136 0.697127 -0.712342
vn -0.028370 0.847777 -0.529594
vn -0.039635 0.902770 -0.428293
vn -0.010921 0.958644 -0.284400
vn -0.012850 0.978098 -0.207747
vn -0.002156 0.993319 -0.115377
vn -0.001455 0.999780 -0.020905
vn -0.000445 0.999623 0.027458
vn -0.005445 0.986795 0.161881
vn -0.005408 0.984564 0.174942
vn -0.025442 0.929567 0.367774
vn -0.017453 0.932804 0.359960
vn -0.061554 0.781747 0.620551
vn -0.037359 0.771651 0.634948
vn -0.105222 0.437894 0.892847
vn -0.059039 0.256336 0.964783
vn -0.119831 -0.182202 0.975932
vn -0.053529 -0.476176 0.877719
vn -0.081136 -0.697127 0.712342
vn -0.028370 -0.847777 0.529594
vn -0.039635 -0.902770 0.428293
vn -0.010921 -0.958643 0.284400
vn -0.012850 -0.978098 0.207747
vn -0.002155 -0.993319 0.115377
vn -0.000440 -1.000000 -0.000000
vn 0.015030 -0.992692 -0.119739
vn 0.012563 -0.991373 -0.130467
vn 0.003085 -0.999994 -0.001466
vn 0.025582 -0.962452 -0.270245
vn 0.061670 -0.954608 -0.291410
vn 0.030071 -0.859484 -0.510277
vn 0.159267 -0.827897 -0.537792
vn 0.002952 -0.440696 -0.897651
vn 0.299894 -0.381094 -0.874546
vn -0.080925 0.446081 -0.891326
vn 0.342386 0.387678 -0.855849
vn -0.081834 0.857873 -0.507303
vn 0.212474 0.823689 -0.525729
vn -0.049979 0.961626 -0.269774
vn 0.097256 0.953193 -0.286293
vn -0.021681 0.992573 -0.119705
vn 0.030195 0.991417 -0.127200
vn -0.000440 1.000000 0.000000
vn 0.003085 0.999994 0.001466
vn 0.015029 0.992692 0.119739
vn 0.012563 0.991373 0.130467
vn 0.025583 0.962452 0.270245
vn 0.061670 0.954608 0.291410
vn 0.030074 0.859485 0.510276
vn 0.159267 0.827897 0.537791
vn 0.002956 0.440699 0.897650
vn 0.299894 0.381097 0.874545
vn -0.080922 -0.446080 0.891327
vn 0.342387 -0.387677 0.855849
vn -0.081832 -0.857874 0.507303
vn 0.212475 -0.823689 0.525729
vn -0.049978 -0.961626 0.269775
vn 0.097256 -0.953193 0.286294
vn -0.021681 -0.992573 0.119705
vn 0.030195 -0.991417 0.127200
vn 0.000000 -0.994063 -0.108811
vn 0.000000 -0.999782 0.020860
vn 0.000000 -0.964281 -0.264883
vn 0.000000 -0.865921 -0.500181
vn 0.000000 -0.512888 -0.858456
vn 0.000000 0.256444 -0.966559
vn -0.000000 0.796490 -0.604651
vn -0.000000 0.944641 -0.328107
vn -0.000000 0.987912 -0.155013
vn -0.000000 0.999782 -0.020860
vn -0.000000 0.994063 0.108810
vn -0.000000 0.964281 0.264883
vn -0.000000 0.865921 0.500181
vn -0.000000 0.512889 0.858455
vn -0.000000 -0.256442 0.966560
vn -0.000000 -0.796490 0.604652
vn 0.000000 -0.944640 0.328108
vn 0.000000 -0.987912 0.155014
vn 1.000000 0.000000 0.000000
vn 1.000000 0.000000 0.000000
vn 1.000000 0.000000 0.000000
vn 1.000000 0.000000 0.000000
vn 1.000000 0.000000 0.000000
vn 1.000000 0.000000 0.000000
vn 1.000000 0.000000 0.000000
vn 1.000000 0.000000 0.000000
vn 1.000000 0.000000 0.000000
vn 1.000000 0.000000 0.000000
vn 1.000000 0.000000 0.000000
vn 1.000000 0.000000 0.000000
vn 1.000000 0.000000 0.000000
vn 1.000000 0.000000 0.000000
vn 1.000000 0.000000 0.000000
vn 1.000000 0.000000 0.000000
vn 1.000000 0.000000 0.000000
vn 1.000000 0.000000 0.000000
vn -0.003597 -0.999992 0.001467
vn -0.035169 -0.991260 -0.127149
vn -0.112603 -0.951719 -0.285571
vn -0.241351 -0.818881 -0.520752
vn -0.379057 -0.386874 -0.840621
vn -0.335226 0.375181 -0.864212
vn -0.182287 0.824795 -0.535242
vn -0.071619 0.954000 -0.291128
vn -0.014644 0.991346 -0.130456
vn -0.003598 0.999992 -0.001467
vn -0.035169 0.991260 0.127149
vn -0.112603 0.951719 0.285571
vn -0.241349 0.818882 0.520752
vn -0.379055 0.386876 0.840621
vn -0.335224 -0.375180 0.864213
vn -0.182286 -0.824795 0.535242
vn -0.071618 -0.954000 0.291128
vn -0.014643 -0.991346 0.130456
# 144 normals

usemtl 
s 21
f 161/289/292 160/290/293 159/291/294
f 159/291/294 158/292/295 157/293/296
f 157/293/296 156/294/297 155/295/298
f 159/291/294 157/293/296 155/295/298
f 155/295/298 154/296/299 153/297/300
f 153/297/300 152/298/301 151/299/302
f 155/295/298 153/297/300 151/299/302
f 151/299/302 150/300/303 149/301/304
f 149/301/304 148/302/305 147/303/306
f 151/299/302 149/301/304 147/303/306
f 155/295/298 151/299/302 147/303/306
f 159/291/294 155/295/298 147/303/306
f 147/303/306 146/304/307 145/305/308
f 159/291/294 147/303/306 145/305/308
f 161/289/292 159/291/294 145/305/308
f 162/306/309 161/289/292 145/305/308
s 22
f 146/307/310 243/308/311 244/309/312
f 244/309/312 145/310/313 146/307/310
f 147/311/314 242/312/315 243/308/311
f 243/308/311 146/307/310 147/311/314
f 148/313/316 241/314/317 242/312/315
f 242/312/315 147/311/314 148/313/316
f 149/315/318 240/316/319 241/314/317
f 241/314/317 148/313/316 149/315/318
f 150/317/320 239/318/321 240/316/319
f 240/316/319 149/315/318 150/317/320
f 151/319/322 238/320/323 239/321/321
f 239/321/321 150/322/320 151/319/322
f 152/323/324 237/324/325 238/320/323
f 238/320/323 151/319/322 152/323/324
f 153/325/326 236/326/327 237/324/325
f 237/324/325 152/323/324 153/325/326
f 154/327/328 235/328/329 236/326/327
f 236/326/327 153/325/326 154/327/328
f 155/329/330 252/330/331 235/328/329
f 235/328/329 154/327/328 155/329/330
f 156/331/332 251/332/333 252/330/331
f 252/330/331 155/329/330 156/331/332
f 157/333/334 250/334/335 251/332/333
f 251/332/333 156/331/332 157/333/334
f 158/335/336 249/336/337 250/337/335
f 250/337/335 157/338/334 158/335/336
f 159/339/338 248/340/339 249/336/337
f 249/336/337 158/335/336 159/339/338
f 160/341/340 247/342/341 248/340/339
f 248/340/339 159/339/338 160/341/340
f 161/343/342 246/344/343 247/342/341
f 247/342/341 160/341/340 161/343/342
f 162/345/344 245/346/345 246/344/343
f 246/344/343 161/343/342 162/345/344
f 145/310/313 244/309/312 245/346/345
f 245/346/345 162/345/344 145/310/313
f 163/347/346 164/348/347 182/349/348
f 182/349/348 181/350/349 163/347/346
f 164/348/347 165/351/350 183/352/351
f 183/352/351 182/349/348 164/348/347
f 165/351/350 166/353/352 184/354/353
f 184/354/353 183/352/351 165/351/350
f 166/353/352 167/355/354 185/356/355
f 185/356/355 184/354/353 166/353/352
f 167/355/354 168/357/356 186/358/357
f 186/358/357 185/356/355 167/355/354
f 168/359/356 169/360/358 187/361/359
f 187/361/359 186/362/357 168/359/356
f 169/360/358 170/363/360 188/364/361
f 188/364/361 187/361/359 169/360/358
f 170/363/360 171/365/362 189/366/363
f 189/366/363 188/364/361 170/363/360
f 171/365/362 172/367/364 190/368/365
f 190/368/365 189/366/363 171/365/362
f 172/367/364 173/369/366 191/370/367
f 191/370/367 190/368/365 172/367/364
f 173/369/366 174/371/368 192/372/369
f 192/372/369 191/370/367 173/369/366
f 174/371/368 175/373/370 193/374/371
f 193/374/371 192/372/369 174/371/368
f 175/373/370 176/375/372 194/376/373
f 194/376/373 193/374/371 175/373/370
f 176/377/372 177/378/374 195/379/375
f 195/379/375 194/380/373 176/377/372
f 177/378/374 178/381/376 196/382/377
f 196/382/377 195/379/375 177/378/374
f 178/381/376 179/383/378 197/384/379
f 197/384/379 196/382/377 178/381/376
f 179/383/378 180/385/380 198/386/381
f 198/386/381 197/384/379 179/383/378
f 180/385/380 163/347/346 181/350/349
f 181/350/349 198/386/381 180/385/380
f 181/387/349 182/388/348 200/389/382
f 200/389/382 199/390/383 181/387/349
f 182/388/348 183/391/351 201/392/384
f 201/392/384 200/389/382 182/388/348
f 183/391/351 184/393/353 202/394/385
f 202/394/385 201/392/384 183/391/351
f 184/393/353 185/395/355 203/396/386
f 203/396/386 202/394/385 184/393/353
f 185/395/355 186/397/357 204/398/387
f 204/398/387 203/396/386 185/395/355
f 186/399/357 187/400/359 205/401/388
f 205/402/388 204/398/387 186/397/357
f 187/400/359 188/403/361 206/404/389
f 206/404/389 205/401/388 187/400/359
f 188/403/361 189/405/363 207/406/390
f 207/406/390 206/404/389 188/403/361
f 189/405/363 190/407/365 208/408/391
f 208/408/391 207/406/390 189/405/363
f 190/407/365 191/409/367 209/410/392
f 209/410/392 208/408/391 190/407/365
f 191/409/367 192/411/369 210/412/393
f 210/412/393 209/410/392 191/409/367
f 192/411/369 193/413/371 211/414/394
f 211/414/394 210/412/393 192/411/369
f 193/413/371 194/415/373 212/416/395
f 212/416/395 211/414/394 193/413/371
f 194/417/373 195/418/375 213/419/396
f 213/419/396 212/420/395 194/417/373
f 195/418/375 196/421/377 214/422/397
f 214/422/397 213/419/396 195/418/375
f 196/421/377 197/423/379 215/424/398
f 215/424/398 214/422/397 196/421/377
f 197/423/379 198/425/381 216/426/399
f 216/426/399 215/424/398 197/423/379
f 198/425/381 181/387/349 199/390/383
f 199/390/383 216/426/399 198/425/381
f 164/348/347 163/347/346 223/445/418
f 223/445/418 222/446/419 164/348/347
f 165/351/350 164/348/347 222/446/419
f 222/446/419 221/447/420 165/351/350
f 166/353/352 165/351/350 221/447/420
f 221/447/420 220/448/421 166/353/352
f 167/355/354 166/353/352 220/448/421
f 220/448/421 219/449/422 167/355/354
f 168/357/356 167/355/354 219/449/422
f 219/449/422 218/450/423 168/357/356
f 169/360/358 168/359/356 218/451/423
f 218/451/423 217/452/424 169/360/358
f 170/363/360 169/360/358 217/452/424
f 217/452/424 234/453/425 170/363/360
f 171/365/362 170/363/360 234/453/425
f 234/453/425 233/454/426 171/365/362
f 172/367/364 171/365/362 233/454/426
f 233/454/426 232/455/427 172/367/364
f 173/369/366 172/367/364 232/455/427
f 232/455/427 231/456/428 173/369/366
f 174/371/368 173/369/366 231/456/428
f 231/456/428 230/457/429 174/371/368
f 175/373/370 174/371/368 230/457/429
f 230/457/429 229/458/430 175/373/370
f 176/375/372 175/373/370 229/458/430
f 229/458/430 228/459/431 176/375/372
f 177/378/374 176/377/372 228/460/431
f 228/460/431 227/461/432 177/378/374
f 178/381/376 177/378/374 227/461/432
f 227/461/432 226/462/433 178/381/376
f 179/383/378 178/381/376 226/462/433
f 226/462/433 225/463/434 179/383/378
f 180/385/380 179/383/378 225/463/434
f 225/463/434 224/464/435 180/385/380
f 163/347/346 180/385/380 224/464/435
f 224/464/435 223/445/418 163/347/346
f 222/465/419 223/466/418 244/309/312
f 244/309/312 243/308/311 222/465/419
f 221/467/420 222/465/419 243/308/311
f 243/308/311 242/312/315 221/467/420
f 220/468/421 221/467/420 242/312/315
f 242/312/315 241/314/317 220/468/421
f 219/469/422 220/468/421 241/314/317
f 241/314/317 240/316/319 219/469/422
f 218/470/423 219/469/422 240/316/319
f 240/316/319 239/318/321 218/470/423
f 217/471/424 218/472/423 239/321/321
f 239/321/321 238/320/323 217/471/424
f 234/473/425 217/471/424 238/320/323
f 238/320/323 237/324/325 234/473/425
f 233/474/426 234/473/425 237/324/325
f 237/324/325 236/326/327 233/474/426
f 232/475/427 233/474/426 236/326/327
f 236/326/327 235/328/329 232/475/427
f 231/476/428 232/475/427 235/328/329
f 235/328/329 252/330/331 231/476/428
f 230/477/429 231/476/428 252/330/331
f 252/330/331 251/332/333 230/477/429
f 229/478/430 230/477/429 251/332/333
f 251/332/333 250/334/335 229/478/430
f 228/479/431 229/478/430 250/334/335
f 250/337/335 249/336/337 228/480/431
f 227/481/432 228/480/431 249/336/337
f 249/336/337 248/340/339 227/481/432
f 226/482/433 227/481/432 248/340/339
f 248/340/339 247/342/341 226/482/433
f 225/483/434 226/482/433 247/342/341
f 247/342/341 246/344/343 225/483/434
f 224/484/435 225/483/434 246/344/343
f 246/344/343 245/346/345 224/484/435
f 223/466/418 224/484/435 245/346/345
f 245/346/345 244/309/312 223/466/418
s 23
f 199/427/400 200/428/401 201/429/402
f 201/429/402 202/430/403 203/431/404
f 203/431/404 204/432/405 205/433/406
f 201/429/402 203/431/404 205/433/406
f 205/433/406 206/434/407 207/435/408
f 207/435/408 208/436/409 209/437/410
f 205/433/406 207/435/408 209/437/410
f 209/437/410 210/438/411 211/439/412
f 211/439/412 212/440/413 213/441/414
f 209/437/410 211/439/412 213/441/414
f 205/433/406 209/437/410 213/441/414
f 201/429/402 205/433/406 213/441/414
f 213/441/414 214/442/415 215/443/416
f 201/429/402 213/441/414 215/443/416
f 199/427/400 201/429/402 215/443/416
f 216/444/417 199/427/400 215/443/416

g Box002
#pivot -48.398663 -2.822671 0.340525

v -54.263508 -2.822671 0.340526
v -48.398663 -2.822671 6.205367
v -48.398663 -2.822671 -5.524317
v -42.533817 -2.822671 0.340524
v -54.263508 1.170523 0.340526
v -48.398663 1.170523 6.205367
v -48.398663 1.170523 -5.524317
v -42.533817 1.170523 0.340524
v -52.744022 -2.822671 0.340525
v -48.398663 -2.822671 -4.004835
v -44.053303 -2.822671 0.340524
v -48.398663 -2.822671 4.685884
v -52.744022 1.170523 0.340525
v -48.398663 1.170523 4.685884
v -44.053303 1.170523 0.340524
v -48.398663 1.170523 -4.004835
v -52.744022 -2.332261 0.340525
v -48.398663 -2.332261 -4.004835
v -44.053303 -2.332261 0.340524
v -48.398663 -2.332261 4.685884
v -52.744022 0.680113 0.340525
v -48.398663 0.680113 4.685884
v -44.053303 0.680113 0.340524
v -48.398663 0.680113 -4.004835
# 24 positions

vt 0.124920 0.719782
vt 0.124920 0.767253
vt 0.077449 0.767253
vt 0.077449 0.719782
vt 0.148886 0.974470
vt 0.148886 0.926999
vt 0.196357 0.926999
vt 0.196357 0.974470
vt 0.378014 0.853338
vt 0.442085 0.853338
vt 0.442085 0.884185
vt 0.378014 0.884185
vt 0.506156 0.853338
vt 0.506156 0.884185
vt 0.570226 0.853338
vt 0.570226 0.884185
vt 0.634296 0.853338
vt 0.634296 0.884185
vt 0.237889 0.769477
vt 0.237889 0.705407
vt 0.246189 0.713707
vt 0.246189 0.761177
vt 0.301959 0.705407
vt 0.293660 0.713707
vt 0.301959 0.769477
vt 0.293660 0.761177
vt 0.398244 0.659615
vt 0.334173 0.659615
vt 0.342473 0.651315
vt 0.389944 0.651315
vt 0.334173 0.595544
vt 0.342473 0.603844
vt 0.398244 0.595544
vt 0.389944 0.603844
vt 0.126684 0.986211
vt 0.174154 0.986211
vt 0.174154 0.990000
vt 0.126684 0.990000
vt 0.221625 0.986211
vt 0.221625 0.990000
vt 0.031742 0.986212
vt 0.079213 0.986211
vt 0.079213 0.990000
vt 0.031742 0.990000
vt 0.203912 0.863338
vt 0.156441 0.863339
vt 0.156441 0.859550
vt 0.203912 0.859550
vt 0.108970 0.863339
vt 0.108970 0.859551
vt 0.298853 0.863339
vt 0.251383 0.863338
vt 0.251383 0.859550
vt 0.298853 0.859551
# 54 texture coordinates

vn 0.000000 -1.000000 0.000000
vn 0.000000 -1.000000 0.000000
vn 0.000000 -1.000000 0.000000
vn 0.000000 -1.000000 0.000000
vn 0.000000 1.000000 0.000000
vn 0.000000 1.000000 0.000000
vn 0.000000 1.000000 0.000000
vn 0.000000 1.000000 0.000000
vn -0.707107 0.000000 0.707107
vn -0.707107 0.000000 0.707107
vn -0.707107 0.000000 0.707107
vn -0.707107 0.000000 0.707107
vn 0.707107 0.000000 0.707107
vn 0.707107 0.000000 0.707107
vn 0.707107 0.000000 0.707107
vn 0.707107 0.000000 0.707107
vn 0.707107 0.000000 -0.707107
vn 0.707107 0.000000 -0.707107
vn 0.707107 0.000000 -0.707107
vn 0.707107 0.000000 -0.707107
vn -0.707107 0.000000 -0.707107
vn -0.707107 0.000000 -0.707107
vn -0.707107 0.000000 -0.707107
vn -0.707107 0.000000 -0.707107
vn 0.000000 -1.000000 0.000000
vn 0.000000 -1.000000 0.000000
vn 0.000000 -1.000000 0.000000
vn 0.000000 -1.000000 0.000000
vn 0.000000 -1.000000 0.000000
vn 0.000000 -1.000000 0.000000
vn 0.000000 -1.000000 0.000000
vn 0.000000 -1.000000 0.000000
vn 0.000000 1.000000 0.000000
vn 0.000000 1.000000 0.000000
vn 0.000000 1.000000 0.000000
vn 0.000000 1.000000 0.000000
vn 0.000000 1.000000 0.000000
vn 0.000000 1.000000 0.000000
vn 0.000000 1.000000 0.000000
vn 0.000000 1.000000 0.000000
vn 0.707107 0.000000 0.707107
vn 0.707107 0.000000 0.707107
vn 0.707107 0.000000 0.707107
vn 0.707107 0.000000 0.707107
vn -0.707107 0.000000 0.707107
vn -0.707107 0.000000 0.707107
vn -0.707107 0.000000 0.707107
vn -0.707107 0.000000 0.707107
vn -0.707107 0.000000 -0.707107
vn -0.707107 0.000000 -0.707107
vn -0.707107 0.000000 -0.707107
vn -0.707107 0.000000 -0.707107
vn 0.707107 0.000000 -0.707107
vn 0.707107 0.000000 -0.707107
vn 0.707107 0.000000 -0.707107
vn 0.707107 0.000000 -0.707107
vn 0.707107 0.000000 -0.707107
vn 0.707107 0.000000 -0.707107
vn 0.707107 0.000000 -0.707107
vn 0.707107 0.000000 -0.707107
vn -0.707107 0.000000 -0.707107
vn -0.707107 0.000000 -0.707107
vn -0.707107 0.000000 -0.707107
vn -0.707107 0.000000 -0.707107
vn -0.707107 0.000000 0.707107
vn -0.707107 0.000000 0.707107
vn -0.707107 0.000000 0.707107
vn -0.707107 0.000000 0.707107
vn 0.707107 0.000000 0.707107
vn 0.707107 0.000000 0.707107
vn 0.707107 0.000000 0.707107
vn 0.707107 0.000000 0.707107
# 72 normals

usemtl 
s 24
f 269/485/436 270/486/437 271/487/438 272/488/439
s 25
f 273/489/440 274/490/441 275/491/442 276/492/443
s 26
f 253/493/444 254/494/445 258/495/446 257/496/447
s 27
f 254/494/448 256/497/449 260/498/450 258/495/451
s 28
f 256/497/452 255/499/453 259/500/454 260/498/455
s 29
f 255/499/456 253/501/457 257/502/458 259/500/459
s 30
f 253/503/460 255/504/461 262/505/462 261/506/463
f 255/504/461 256/507/464 263/508/465 262/505/462
f 256/507/464 254/509/466 264/510/467 263/508/465
f 254/509/466 253/503/460 261/506/463 264/510/467
s 31
f 257/511/468 258/512/469 266/513/470 265/514/471
f 258/512/469 260/515/472 267/516/473 266/513/470
f 260/515/472 259/517/474 268/518/475 267/516/473
f 259/517/474 257/511/468 265/514/471 268/518/475
s 32
f 261/519/476 262/520/477 270/521/478 269/522/479
s 33
f 262/520/480 263/523/481 271/524/482 270/521/483
s 34
f 263/525/484 264/526/485 272/527/486 271/528/487
s 35
f 264/526/488 261/519/489 269/522/490 272/527/491
s 36
f 265/529/492 266/530/493 274/531/494 273/532/495
s 37
f 266/530/496 267/533/497 275/534/498 274/531/499
s 38
f 267/535/500 268/536/501 276/537/502 275/538/503
s 39
f 268/536/504 265/529/505 273/532/506 276/537/507

g Box003
#pivot -11.983294 -2.350869 1.051862

v -13.939392 -2.350869 8.150448
v -6.715393 -2.350869 8.150448
v -17.251194 -2.350869 -4.158561
v -6.715393 -2.350869 -6.046725
v -13.939392 1.310838 8.150448
v -6.715393 1.310838 8.150448
v -17.251194 1.310838 -4.158561
v -6.715393 1.310838 -6.046725
v -17.251194 -2.350869 6.262285
v -13.939392 -2.350869 -6.046725
v -17.251194 1.310838 6.262285
v -13.939392 1.310838 -6.046725
v -13.939392 -2.350869 11.245945
v -6.715393 -2.350869 9.337240
v -6.715393 1.310838 9.337240
v -13.939392 1.310838 11.245945
v -6.715393 -2.350869 -7.233518
v -13.939392 -2.350869 -9.142221
v -13.939392 1.310838 -9.142221
v -6.715393 1.310838 -7.233518
v -8.624096 -2.350869 11.245945
v -8.624096 1.310838 11.245945
v -8.624096 -2.350869 -9.142221
v -8.624096 1.310838 -9.142221
# 24 positions

vt 0.710066 0.816067
vt 0.790564 0.816067
vt 0.805150 0.841650
vt 0.805150 0.897453
vt 0.695480 0.897453
vt 0.695480 0.841650
vt 0.696389 0.629606
vt 0.696389 0.573802
vt 0.806059 0.573802
vt 0.806059 0.629606
vt 0.791473 0.655189
vt 0.710975 0.655189
vt 0.370083 0.990000
vt 0.329023 0.990000
vt 0.329023 0.961714
vt 0.370083 0.961714
vt 0.019167 0.946184
vt 0.128838 0.946184
vt 0.128838 0.974470
vt 0.019167 0.974470
vt 0.194141 0.847459
vt 0.153082 0.847459
vt 0.153082 0.819173
vt 0.194141 0.819173
vt 0.066240 0.699536
vt 0.066240 0.780034
vt 0.037954 0.780034
vt 0.037954 0.699536
vt 0.037954 0.809483
vt 0.066239 0.809483
vt 0.066239 0.670087
vt 0.037954 0.670087
vt 0.686312 0.897453
vt 0.671568 0.882710
vt 0.671568 0.841650
vt 0.010000 0.974470
vt 0.010000 0.946184
vt 0.672477 0.629606
vt 0.672477 0.588547
vt 0.687221 0.573802
vt 0.393995 0.961714
vt 0.393995 0.990000
vt 0.829062 0.841650
vt 0.829062 0.882710
vt 0.814318 0.897453
vt 0.129170 0.847459
vt 0.129170 0.819173
vt 0.815227 0.573802
vt 0.829971 0.588547
vt 0.829971 0.629606
vt 0.138006 0.946184
vt 0.138006 0.974470
vt 0.308171 0.990000
vt 0.308171 0.961714
vt 0.214993 0.819173
vt 0.214993 0.847459
# 56 texture coordinates

vn 0.000000 -1.000000 0.000000
vn 0.000000 -1.000000 0.000000
vn 0.000000 -1.000000 0.000000
vn 0.000000 -1.000000 0.000000
vn 0.000000 -1.000000 0.000000
vn 0.000000 -1.000000 0.000000
vn 0.000000 1.000000 0.000000
vn 0.000000 1.000000 0.000000
vn 0.000000 1.000000 0.000000
vn 0.000000 1.000000 0.000000
vn 0.000000 1.000000 0.000000
vn 0.000000 1.000000 0.000000
vn 0.000000 0.000000 1.000000
vn 0.000000 0.000000 1.000000
vn 0.000000 0.000000 1.000000
vn 0.000000 0.000000 1.000000
vn 1.000000 0.000000 0.000000
vn 1.000000 0.000000 0.000000
vn 1.000000 0.000000 0.000000
vn 1.000000 0.000000 0.000000
vn 0.000000 0.000000 -1.000000
vn 0.000000 0.000000 -1.000000
vn 0.000000 0.000000 -1.000000
vn 0.000000 0.000000 -1.000000
vn -1.000000 0.000000 0.000000
vn -1.000000 0.000000 0.000000
vn -1.000000 0.000000 0.000000
vn -1.000000 0.000000 0.000000
vn -0.495289 0.000000 0.868728
vn -0.495289 0.000000 0.868728
vn -0.495289 0.000000 0.868728
vn -0.495289 0.000000 0.868728
vn -0.495289 0.000000 -0.868728
vn -0.495289 0.000000 -0.868728
vn -0.495289 0.000000 -0.868728
vn -0.495289 0.000000 -0.868728
vn 0.000000 -1.000000 0.000000
vn 0.000000 -1.000000 0.000000
vn 0.000000 -1.000000 0.000000
vn 1.000000 0.000000 0.000000
vn 1.000000 0.000000 0.000000
vn 0.000000 1.000000 0.000000
vn 0.000000 1.000000 0.000000
vn 0.000000 1.000000 0.000000
vn -1.000000 0.000000 0.000000
vn -1.000000 0.000000 0.000000
vn -1.000000 0.000000 0.000000
vn -1.000000 0.000000 0.000000
vn 0.000000 -1.000000 0.000000
vn 0.000000 -1.000000 0.000000
vn 0.000000 -1.000000 0.000000
vn -1.000000 0.000000 0.000000
vn -1.000000 0.000000 0.000000
vn -1.000000 0.000000 0.000000
vn -1.000000 0.000000 0.000000
vn 0.000000 1.000000 0.000000
vn 0.000000 1.000000 0.000000
vn 0.000000 1.000000 0.000000
vn 1.000000 0.000000 0.000000
vn 1.000000 0.000000 0.000000
vn 0.707107 0.000000 0.707106
vn 0.707107 0.000000 0.707106
vn 0.707107 0.000000 0.707106
vn 0.707107 0.000000 0.707106
vn 0.707107 0.000000 -0.707107
vn 0.707107 0.000000 -0.707107
vn 0.707107 0.000000 -0.707107
vn 0.707107 0.000000 -0.707107
# 68 normals

usemtl 
s 40
f 285/539/508 279/540/509 286/541/510
f 285/539/508 286/541/510 280/542/511
f 285/539/508 280/542/511 278/543/512
f 277/544/513 285/539/508 278/543/512
f 278/543/512 290/571/544 297/572/545
f 277/544/513 278/543/512 297/572/545
f 277/544/513 297/572/545 289/573/546
f 280/542/511 286/541/510 294/581/556
f 294/581/556 299/582/557 293/583/558
f 280/542/511 294/581/556 293/583/558
s 41
f 281/545/514 282/546/515 284/547/516
f 284/547/516 288/548/517 283/549/518
f 281/545/514 284/547/516 283/549/518
f 287/550/519 281/545/514 283/549/518
f 282/546/515 281/545/514 292/576/549
f 292/576/549 298/577/550 291/578/551
f 282/546/515 292/576/549 291/578/551
f 284/547/516 296/586/563 300/587/564
f 288/548/517 284/547/516 300/587/564
f 288/548/517 300/587/564 295/588/565
s 42
f 289/551/520 297/552/521 298/553/522
f 298/553/522 292/554/523 289/551/520
s 43
f 278/555/524 280/556/525 284/557/526
f 284/557/526 282/558/527 278/555/524
f 278/555/524 282/558/527 291/574/547
f 291/574/547 290/575/548 278/555/524
f 284/557/526 280/556/525 293/589/566
f 293/589/566 296/590/567 284/557/526
s 44
f 299/559/528 294/560/529 295/561/530
f 295/561/530 300/562/531 299/559/528
s 45
f 279/563/532 285/564/533 287/565/534
f 287/565/534 283/566/535 279/563/532
s 46
f 281/567/536 287/565/537 285/564/538
f 285/564/538 277/568/539 281/567/536
s 47
f 286/569/540 279/563/541 283/566/542
f 283/566/542 288/570/543 286/569/540
s 48
f 281/579/552 277/580/553 289/551/554
f 289/551/554 292/554/555 281/579/552
s 49
f 286/584/559 288/585/560 295/561/561
f 295/561/561 294/560/562 286/584/559
s 50
f 297/552/568 290/591/569 291/592/570
f 291/592/570 298/553/571 297/552/568
s 51
f 300/562/572 296/593/573 293/594/574
f 293/594/574 299/559/575 300/562/572

# 418 faces
